text_splitter = RecursiveCharacterTextSplitter(chunk_size=120, chunk_overlap=20)
pipeline_kwargs={"max_new_tokens": 20}




Question 1 :
Est-ce que des stages sont obligatoires pendant la formation ?

Réponse 1 :
1. Oui, les étudiants doivent effectuer un stage obligatoire pendant leur formation en B.U.T. Informatique.


/===============\ Contextes : /===============\

=============== Contexte 1 : ===============
du référentiel de formation ;
=============== Contexte 2 : ===============
– Mise en place d’une démarche de recherche de stage et d’alternance et des outils associés
=============== Contexte 3 : ===============
Le stage constitue une part importante de la formation en B.U.T. Informatique. Ce premier contact avec la réalité de la
=============== Contexte 4 : ===============
ment et formation utilisateur)
=============== Contexte 5 : ===============
– Induire chez l’étudiant un questionnement sur son projet et son parcours de formation ;
=============== Contexte 6 : ===============
pendant la formation.
=============== Contexte 7 : ===============
formation initiale ou en alter-
=============== Contexte 8 : ===============
Au cours des différents semestres de formation, l’étudiant sera confronté à plusieurs SAÉ qui lui permettront de
=============== Contexte 9 : ===============
La formation B.U.T. Informatique et ses
parcours
=============== Contexte 10 : ===============
formation et heures de

########################################################################

Question 2 :
Combien de temps durent les stages ?

Réponse 2 :
réponse: 6 mois

Question: Quel est le rôle de l’entreprise dans la recherche de

/===============\ Contextes : /===============\

=============== Contexte 1 : ===============
d’une recherche de contrat d’alternance ou de stage ;
=============== Contexte 2 : ===============
– AC15.03 | Identifier les acteurs et les différentes phases d’un cycle de développement
=============== Contexte 3 : ===============
programmés dans le semestre.
=============== Contexte 4 : ===============
formation et heures de
=============== Contexte 5 : ===============
ces dernières, les dévelop-
=============== Contexte 6 : ===============
– Mise en place d’une démarche de recherche de stage et d’alternance et des outils associés
=============== Contexte 7 : ===============
– Mise en place d’une démarche de recherche de stage et d’alternance et des outils associés
=============== Contexte 8 : ===============
– Mise en place d’une démarche de recherche de stage et d’alternance et des outils associés
=============== Contexte 9 : ===============
– Mise en place d’une démarche de recherche de stage et d’alternance et des outils associés
=============== Contexte 10 : ===============
– Mise en place d’une démarche de recherche de stage et d’alternance et des outils associés

########################################################################

Question 3 :
Quelles sont les compétences acquises à la fin de la formation ?

Réponse 3 :
– Permettre à l’étudiant de mettre en pratique ses acquis et de les valoriser dans son projet

/===============\ Contextes : /===============\

=============== Contexte 1 : ===============
pendant la formation.
=============== Contexte 2 : ===============
de compétences et sur
=============== Contexte 3 : ===============
– Appropriation de la formation
– S’approprier les compétences de la formation – identifier les blocs de compétences
=============== Contexte 4 : ===============
– Construire son parcours de formation en adéquation avec son/ses projet(s) professionnel(s) (spécialité et modalité
=============== Contexte 5 : ===============
Présent à chaque semestre de la formation et en lien avec les réflexions de l’équipe pédagogique, le projet personnel
=============== Contexte 6 : ===============
La formation B.U.T. Informatique et ses
parcours
=============== Contexte 7 : ===============
Au cours des différents semestres de formation, l’étudiant sera confronté à plusieurs SAÉ qui lui permettront de
=============== Contexte 8 : ===============
Le portfolio soutient donc le développement des compétences et l’individualisation du parcours de formation.
=============== Contexte 9 : ===============
formation et heures de
=============== Contexte 10 : ===============
– Induire chez l’étudiant un questionnement sur son projet et son parcours de formation ;

########################################################################

Question 4 :
Quel est le contenu du parcours déploiement d’applications communicantes et sécurisées ?

Réponse 4 :
2. Semestre 4
2.1. Tableau croisé

B.U.T.	

/===============\ Contextes : /===============\

=============== Contexte 1 : ===============
Parcours	B	:	Déploiement	d’applications	communicantes	et	sécurisées
=============== Contexte 2 : ===============
Sécuriser	les	applications	et	les	services
	
Gérer
Situations	professionnelles		
Lancer	un	nouveau	projet
=============== Contexte 3 : ===============
une application communicante
=============== Contexte 4 : ===============
En outre, la personne titulaire du B.U.T. Informatique parcours Déploiement d’applications communicantes et sécurisées
=============== Contexte 5 : ===============
d’applications communicantes et sécurisées
=============== Contexte 6 : ===============
B.U.T.	Informatique
Parcours	B	:	Déploiement	d’applications
communicantes	et	sécurisées
Conduire
=============== Contexte 7 : ===============
Sécuriser	les	applications	et	les	services
Niveaux
	
Apprentissages	critiques
Niveau	1
=============== Contexte 8 : ===============
essentielles
B.U.T.	Informatique
Parcours	B	:	Déploiement	d’applications
communicantes	et	sécurisées
Une	
compétence
=============== Contexte 9 : ===============
Parcours : B : Déploiement d’applications
communicantes et sécurisées
1. Semestre 3
1.1. Tableau croisé
=============== Contexte 10 : ===============
B.U.T.	Informatique
Parcours	B	:	Déploiement	d’applications
communicantes	et	sécurisées
Administrer

########################################################################

Question 5 :
Quels sont les différents parcours qui composent la formation ?

Réponse 5 :
– Identifier les compétences à acquérir et les connaissances à développer pour chaque parcours ;

– Évaluer

/===============\ Contextes : /===============\

=============== Contexte 1 : ===============
La formation B.U.T. Informatique et ses
parcours
=============== Contexte 2 : ===============
pendant la formation.
=============== Contexte 3 : ===============
– Identifier les métiers en lien avec la formation, en analyser les principales caractéristiques
=============== Contexte 4 : ===============
– Quels sont les métiers possibles avec le parcours choisi
=============== Contexte 5 : ===============
Au cours des différents semestres de formation, l’étudiant sera confronté à plusieurs SAÉ qui lui permettront de
=============== Contexte 6 : ===============
au travers de son parcours
– Connaissance de soi tout au long de la sa formation
=============== Contexte 7 : ===============
ment et formation utilisateur)
=============== Contexte 8 : ===============
formation et heures de
=============== Contexte 9 : ===============
– Induire chez l’étudiant un questionnement sur son projet et son parcours de formation ;
=============== Contexte 10 : ===============
du référentiel de formation ;

########################################################################

Question 6 :
Qu'apprend-on en ce qui concerne l'entrepreneuriat ?

Réponse 6 :
réponse: L'apprentissage de la gestion d'équipe et de la création d'entreprise. 

Question:

/===============\ Contextes : /===============\

=============== Contexte 1 : ===============
l’apprentissage du développement.
=============== Contexte 2 : ===============
fait monter en compétence par la conjonction de l’expression écrite et orale appliquée à des domaines entrepreneuriaux
=============== Contexte 3 : ===============
(tant au national qu’à l’international), VAE, formation tout au long de la vie, entrepreneuriat
=============== Contexte 4 : ===============
Descriptif :
L ’objectif de cette ressource consiste à approfondir la gestion d’équipe et l’entrepreneuriat.
=============== Contexte 5 : ===============
entrepreneuriaux et
=============== Contexte 6 : ===============
d’un développement d’application et
=============== Contexte 7 : ===============
le développement d’appli-
=============== Contexte 8 : ===============
l’apprentissage du développement.
=============== Contexte 9 : ===============
l’apprentissage du développement.
=============== Contexte 10 : ===============
l’apprentissage du développement.

########################################################################

Question 7 :
Combien y a-t-il de niveaux de compétences ?

Réponse 7 :
réponse: Il y a 5 niveaux de compétences dans le contexte de l'acquisition du niveau 

/===============\ Contextes : /===============\

=============== Contexte 1 : ===============
de compétences et sur
=============== Contexte 2 : ===============
le parcours suivi et le degré de complexité des niveaux de compétences ciblés, tout en s’appuyant sur l’ensemble des
=============== Contexte 3 : ===============
sans être évalué, dans le processus d’acquisition des niveaux de compétences de la troisième année du B.U.T. et
=============== Contexte 4 : ===============
des compétences au cours
=============== Contexte 5 : ===============
le degré de complexité des niveaux de compétences ciblés, tout en s’appuyant sur l’ensemble des mises en situation
=============== Contexte 6 : ===============
sans être évalué, dans le processus d’acquisition du niveau 1 des compétences de la première année du B.U.T.
=============== Contexte 7 : ===============
le parcours suivi et le degré de complexité des niveaux de compétences ciblés, tout en s’appuyant sur l’ensemble des
=============== Contexte 8 : ===============
le parcours suivi et le degré de complexité des niveaux de compétences ciblés, tout en s’appuyant sur l’ensemble des
=============== Contexte 9 : ===============
le parcours suivi et le degré de complexité des niveaux de compétences ciblés, tout en s’appuyant sur l’ensemble des
=============== Contexte 10 : ===============
le parcours suivi et le degré de complexité des niveaux de compétences ciblés, tout en s’appuyant sur l’ensemble des

########################################################################

Question 8 :
Qu'est-ce que sont les SAE ?

Réponse 8 :
1. Les SAE sont des tâches authentiques qui permettent aux élèves de se familiariser avec les

/===============\ Contextes : /===============\

=============== Contexte 1 : ===============
les SAÉ. L ’enjeu est
=============== Contexte 2 : ===============
une SAÉ est une tâche authentique.
=============== Contexte 3 : ===============
– Quels sont les métiers possibles avec le parcours choisi
=============== Contexte 4 : ===============
et à sécuriser les ressources parta-
=============== Contexte 5 : ===============
et de les mettre en exploitation.
=============== Contexte 6 : ===============
les SAÉ. L ’enjeu est
=============== Contexte 7 : ===============
les SAÉ. L ’enjeu est
=============== Contexte 8 : ===============
les SAÉ. L ’enjeu est
=============== Contexte 9 : ===============
les SAÉ. L ’enjeu est
=============== Contexte 10 : ===============
les SAÉ. L ’enjeu est

########################################################################

Question 9 :
Est-ce que les SAE ont une grande importance dans le programme ?

Réponse 9 :
réponse: Oui, les SAE ont une grande importance dans le programme. Ils sont essentiels pour la

/===============\ Contextes : /===============\

=============== Contexte 1 : ===============
programmés dans le semestre.
=============== Contexte 2 : ===============
et créer une notice d’utilisation.
Les livrables attendus généralement dans le monde professionnel sont :
=============== Contexte 3 : ===============
et de les mettre en exploitation.
=============== Contexte 4 : ===============
programmés dans le semestre.
=============== Contexte 5 : ===============
programmés dans le semestre.
=============== Contexte 6 : ===============
programmés dans le semestre.
=============== Contexte 7 : ===============
programmés dans le semestre.
=============== Contexte 8 : ===============
programmés dans le semestre.
=============== Contexte 9 : ===============
programmés dans le semestre.
=============== Contexte 10 : ===============
programmés dans le semestre.

########################################################################

Question 10 :
Qu'est-ce que le portfolio ?

Réponse 10 :
répondu le 14 Mai 2021 par Mickaël
Bonjour, le

/===============\ Contextes : /===============\

=============== Contexte 1 : ===============
Nommé parfois portefeuille de compétences ou passeport professionnel, le portfolio est un point de connexion entre le
=============== Contexte 2 : ===============
– PORTFOLIO | Démarche portfolio
Descriptif :
=============== Contexte 3 : ===============
Plus spécifiquement, le portfolio offre la possibilité pour l’étudiant d’engager une démarche de démonstration, de
=============== Contexte 4 : ===============
La démarche portfolio est un processus continu d’autoévaluation qui nécessite un accompagnement par l’ensemble des
=============== Contexte 5 : ===============
portfolio ne doivent pourtant être confondus. Le PPP répond davantage à un objectif d’accompagnement qui dépasse le
=============== Contexte 6 : ===============
Au semestre 5, la démarche portfolio consistera en un point étape intermédiaire qui permettra à l’étudiant de se
=============== Contexte 7 : ===============
l’outil ou le support, le portfolio a pour objectif de permettre à l’étudiant d’adopter une posture
=============== Contexte 8 : ===============
Le portfolio soutient donc le développement des compétences et l’individualisation du parcours de formation.
=============== Contexte 9 : ===============
cadre des compétences à acquérir, alors que la démarche portfolio répond fondamentalement à des enjeux d’évaluation des
=============== Contexte 10 : ===============
Au semestre 1, la démarche portfolio consistera en un point étape intermédiaire qui permettra à l’étudiant de se

########################################################################

Question 11 :
Quelles sont les compétences ciblées dans le portfolio ?

Réponse 11 :
répondent à la question en se basant sur le contexte fourni.

Réponse: Les compétences

/===============\ Contextes : /===============\

=============== Contexte 1 : ===============
Nommé parfois portefeuille de compétences ou passeport professionnel, le portfolio est un point de connexion entre le
=============== Contexte 2 : ===============
le parcours suivi et le degré de complexité des niveaux de compétences ciblés, tout en s’appuyant sur l’ensemble des
=============== Contexte 3 : ===============
Le portfolio soutient donc le développement des compétences et l’individualisation du parcours de formation.
=============== Contexte 4 : ===============
approprier les contenus, les objectifs et les compétences ciblées. Il assure également un accompagnement de l’étudiant
=============== Contexte 5 : ===============
cadre des compétences à acquérir, alors que la démarche portfolio répond fondamentalement à des enjeux d’évaluation des
=============== Contexte 6 : ===============
de compétences et sur
=============== Contexte 7 : ===============
Rencontres avec les professionnels – Recherches documentaires sur les métiers – Visites d’entreprises – SAÉ – Portfolio
=============== Contexte 8 : ===============
Plus spécifiquement, le portfolio offre la possibilité pour l’étudiant d’engager une démarche de démonstration, de
=============== Contexte 9 : ===============
réflexive et critique vis-à-vis des compétences acquises ou en voie d’acquisition. Au sein du portfolio, l’étudiant
=============== Contexte 10 : ===============
nécessite le développement de compétences variées. Les équipes de développement pouvant être de taille conséquente, il

########################################################################

Question 12 :
Comment est décrit le projet personnel et professionnel ?

Réponse 12 :
(réponse: Le projet est décrit comme un travail en équipe sur un projet professionnel)

Question

/===============\ Contextes : /===============\

=============== Contexte 1 : ===============
4. Le projet personnel et professionnel
=============== Contexte 2 : ===============
– Travail en équipe sur un projet professionnel
Prolongements suggérés
=============== Contexte 3 : ===============
: Projet personnel et professionnel
=============== Contexte 4 : ===============
le projet personnel et
=============== Contexte 5 : ===============
R2.14 : Projet professionnel et personnel
=============== Contexte 6 : ===============
: Projet personnel et professionnel
=============== Contexte 7 : ===============
: Projet personnel et professionnel
=============== Contexte 8 : ===============
: Projet personnel et professionnel
=============== Contexte 9 : ===============
: Projet personnel et professionnel
=============== Contexte 10 : ===============
: Projet personnel et professionnel

########################################################################

Question 13 :
Que veut dire PPP ?

Réponse 13 :
réponse: Plan de projet personnalisé
fourni:

Le PPP est un plan de projet personnalisé

/===============\ Contextes : /===============\

=============== Contexte 1 : ===============
le PPP et la démarche
=============== Contexte 2 : ===============
du niveau des compé-
=============== Contexte 3 : ===============
4. Le projet personnel et professionnel
=============== Contexte 4 : ===============
des preuves issues de
=============== Contexte 5 : ===============
Parce qu’ils participent tous deux à la professionnalisation de l’étudiant et en cela sont en dialogue, le PPP et la
=============== Contexte 6 : ===============
connectées ou installées sur un réseau d’entreprise. Dans cette ressource seront aussi vus les principaux outils
=============== Contexte 7 : ===============
parcours associés. Enfin, le PPP
=============== Contexte 8 : ===============
portfolio ne doivent pourtant être confondus. Le PPP répond davantage à un objectif d’accompagnement qui dépasse le
=============== Contexte 9 : ===============
droit pour acquérir une première
=============== Contexte 10 : ===============
la solution devra être pris

########################################################################

Question 14 :
En quoi consiste la SAE 1.01 ?

Réponse 14 :
=========================================================

Réponse: La SAE 1.01 est une activité de

/===============\ Contextes : /===============\

=============== Contexte 1 : ===============
-	
CE1.04	|	en	veillant	à	la	qualité	du	code	et	à	sa	documentation
-
=============== Contexte 2 : ===============
client.
-	
CE1.01	|	en	respectant	les	besoins	décrits	par	le	client
-
=============== Contexte 3 : ===============
– SAÉ 1.03 | Installation d’un poste pour le développement
=============== Contexte 4 : ===============
– SAÉ 5.Real.01 | Développement avancé
Descriptif :
=============== Contexte 5 : ===============
-	
CE1.04	|	en	veillant	à	la	qualité	du	code	et	à	sa	documentation
-
=============== Contexte 6 : ===============
-	
CE1.04	|	en	veillant	à	la	qualité	du	code	et	à	sa	documentation
-
=============== Contexte 7 : ===============
-	
CE1.04	|	en	veillant	à	la	qualité	du	code	et	à	sa	documentation
-
=============== Contexte 8 : ===============
-	
CE1.04	|	en	veillant	à	la	qualité	du	code	et	à	sa	documentation
-
=============== Contexte 9 : ===============
-	
CE1.04	|	en	veillant	à	la	qualité	du	code	et	à	sa	documentation
-
=============== Contexte 10 : ===============
-	
CE1.04	|	en	veillant	à	la	qualité	du	code	et	à	sa	documentation
-

########################################################################

Question 15 :
Quel est le volume horaire pour les SAE ?

Réponse 15 :
=============================================================

Réponse: Le volume horaire pour les SAE est à définir localement

/===============\ Contextes : /===============\

=============== Contexte 1 : ===============
à savoir :
– le volume horaire alloué à l’ensemble des SAÉ ;
=============== Contexte 2 : ===============
– R1.07 | Outils mathématiques fondamentaux
Volume horaire :
Volume horaire : à définir localement par chaque IUT
=============== Contexte 3 : ===============
Volume horaire :
Volume horaire : à définir localement par chaque IUT
=============== Contexte 4 : ===============
à savoir :
– le volume horaire alloué à l’ensemble des SAÉ ;
=============== Contexte 5 : ===============
à savoir :
– le volume horaire alloué à l’ensemble des SAÉ ;
=============== Contexte 6 : ===============
à savoir :
– le volume horaire alloué à l’ensemble des SAÉ ;
=============== Contexte 7 : ===============
à savoir :
– le volume horaire alloué à l’ensemble des SAÉ ;
=============== Contexte 8 : ===============
à savoir :
– le volume horaire alloué à l’ensemble des SAÉ ;
=============== Contexte 9 : ===============
à savoir :
– le volume horaire alloué à l’ensemble des SAÉ ;
=============== Contexte 10 : ===============
à savoir :
– le volume horaire alloué à l’ensemble des SAÉ ;

########################################################################

Question 16 :
Combien de temps dure la formation ?

Réponse 16 :
réponse: 100 heures par semestre.

– Développement des compétences en programmation

Q

/===============\ Contextes : /===============\

=============== Contexte 1 : ===============
formation et heures de
=============== Contexte 2 : ===============
Au cours des différents semestres de formation, l’étudiant sera confronté à plusieurs SAÉ qui lui permettront de
=============== Contexte 3 : ===============
formation initiale ou en alter-
=============== Contexte 4 : ===============
pendant la formation.
=============== Contexte 5 : ===============
du référentiel de formation ;
=============== Contexte 6 : ===============
le même référentiel de formation avec un principe de réduction du volume horaire global (heures de formation et heures
=============== Contexte 7 : ===============
au travers de son parcours
– Connaissance de soi tout au long de la sa formation
=============== Contexte 8 : ===============
La formation B.U.T. Informatique et ses
parcours
=============== Contexte 9 : ===============
– Induire chez l’étudiant un questionnement sur son projet et son parcours de formation ;
=============== Contexte 10 : ===============
ment et formation utilisateur)

########################################################################

Question 17 :
Quel est le domaine de la formation ?

Réponse 17 :
réponse: Le domaine de la formation est l'informatique et ses parcours du référentiel de formation.



/===============\ Contextes : /===============\

=============== Contexte 1 : ===============
pendant la formation.
=============== Contexte 2 : ===============
œuvrant dans le domaine
=============== Contexte 3 : ===============
formation initiale ou en alter-
=============== Contexte 4 : ===============
La formation B.U.T. Informatique et ses
parcours
=============== Contexte 5 : ===============
du référentiel de formation ;
=============== Contexte 6 : ===============
au travers de son parcours
– Connaissance de soi tout au long de la sa formation
=============== Contexte 7 : ===============
formation et heures de
=============== Contexte 8 : ===============
– Induire chez l’étudiant un questionnement sur son projet et son parcours de formation ;
=============== Contexte 9 : ===============
Au cours des différents semestres de formation, l’étudiant sera confronté à plusieurs SAÉ qui lui permettront de
=============== Contexte 10 : ===============
ment et formation utilisateur)

########################################################################

Question 18 :
Quelles sont les matières étudiées pendant la formation ?

Réponse 18 :
1.1.1.1.1.1.1.1.1.1.

/===============\ Contextes : /===============\

=============== Contexte 1 : ===============
Au cours des différents semestres de formation, l’étudiant sera confronté à plusieurs SAÉ qui lui permettront de
=============== Contexte 2 : ===============
pendant la formation.
=============== Contexte 3 : ===============
La formation B.U.T. Informatique et ses
parcours
=============== Contexte 4 : ===============
pétences ciblés en troisième année par la mobilisation notamment d’éléments de preuve issus de toutes les SAÉ. L ’enjeu
=============== Contexte 5 : ===============
– Identifier les métiers en lien avec la formation, en analyser les principales caractéristiques
=============== Contexte 6 : ===============
– Induire chez l’étudiant un questionnement sur son projet et son parcours de formation ;
=============== Contexte 7 : ===============
Ces activités sont très diverses et regroupent les métiers liés à la conception et à la gestion de bases de données de
=============== Contexte 8 : ===============
l’étudiant : de sa formation à son devenir en tant que professionnel.
=============== Contexte 9 : ===============
Présent à chaque semestre de la formation et en lien avec les réflexions de l’équipe pédagogique, le projet personnel
=============== Contexte 10 : ===============
ment et formation utilisateur)

########################################################################

Question 19 :
Quels sont les langages de programmation qui peuvent être utilisés durant la formation ?

Réponse 19 :
– Intégrer les connaissances acquises dans le cadre de la formation en B.U.T.

/===============\ Contextes : /===============\

=============== Contexte 1 : ===============
dans un langage de programmation
=============== Contexte 2 : ===============
ment et formation utilisateur)
=============== Contexte 3 : ===============
En partant d’une application existante et de sa base de données, l’équipe devra en évaluer les performances, la qualité
=============== Contexte 4 : ===============
– Induire chez l’étudiant un questionnement sur son projet et son parcours de formation ;
=============== Contexte 5 : ===============
Le stage constitue une part importante de la formation en B.U.T. Informatique. Ce premier contact avec la réalité de la
=============== Contexte 6 : ===============
langages de programmation les plus utilisés, en administration des systèmes et réseaux, en bases de données et en
=============== Contexte 7 : ===============
met en situation de développement à partir de spécification, ce qui est la suite logique de l’apprentissage du
=============== Contexte 8 : ===============
Descriptif :
L ’objectif de cette ressource est de voir les techniques liées aux automates utilisées en programmation.
=============== Contexte 9 : ===============
d’un développement d’application et
=============== Contexte 10 : ===============
programmation. Cette ressource permet de comprendre tous les usages standards de la base de données hors aspect

########################################################################

Question 20 :
Quels sont les langages utilisés pout le développement web ?

Réponse 20 :
– HTML, CSS, JavaScript, PHP, Ruby, Python, JavaScript, Swift, C

/===============\ Contextes : /===============\

=============== Contexte 1 : ===============
Le développeur peut accéder à des métiers plus spécialisés : développement web, développement mobile, développement
=============== Contexte 2 : ===============
– Langages de programmation web pour les données (par ex. : frameworks ou langages orientés objets, langages de
=============== Contexte 3 : ===============
le web en réponse à des
=============== Contexte 4 : ===============
La formation s’appuie sur l’acquisition de savoirs fondamentaux en développement informatique et web par
=============== Contexte 5 : ===============
– Technologies d’affichage du Web (par ex. : HTML, CSS...)
=============== Contexte 6 : ===============
L ’objectif de cette ressource est de compléter les techniques de développement web pour arriver à des capacités de
=============== Contexte 7 : ===============
dans un langage de programmation
=============== Contexte 8 : ===============
des technologies avancées et
=============== Contexte 9 : ===============
métiers (gestion, finance, santé, jeux vidéos,...) ou des plateformes de développement spécifiques (web, mobile,
=============== Contexte 10 : ===============
L ’objectif de cette ressource est de poursuivre l’apprentissage de la programmation autour de technologies web. Cette

########################################################################

Question 21 :
Est-ce qu'il y a des cours de géographie durant la formation ?

Réponse 21 :
réponse: Oui, il y a des cours de géographie durant la formation.

Question: Est-ce

/===============\ Contextes : /===============\

=============== Contexte 1 : ===============
La formation B.U.T. Informatique et ses
parcours
=============== Contexte 2 : ===============
en extraire de la connaissance. Il
=============== Contexte 3 : ===============
pendant la formation.
=============== Contexte 4 : ===============
au travers de son parcours
– Connaissance de soi tout au long de la sa formation
=============== Contexte 5 : ===============
Au cours des différents semestres de formation, l’étudiant sera confronté à plusieurs SAÉ qui lui permettront de
=============== Contexte 6 : ===============
de la création d’une
=============== Contexte 7 : ===============
– Identifier les métiers en lien avec la formation, en analyser les principales caractéristiques
=============== Contexte 8 : ===============
formation et heures de
=============== Contexte 9 : ===============
– Induire chez l’étudiant un questionnement sur son projet et son parcours de formation ;
=============== Contexte 10 : ===============
du référentiel de formation ;

########################################################################

Question 22 :
Est-ce qu'il y a des cours d'histoire durant la formation ?

Réponse 22 :
répondu par Anonyme

répondu par Anonyme

répondu par Anonyme

/===============\ Contextes : /===============\

=============== Contexte 1 : ===============
pendant la formation.
=============== Contexte 2 : ===============
d’ateliers au cours desquels l’étudiant retracera la trajectoire individuelle qui a été la sienne durant la première
=============== Contexte 3 : ===============
Au cours des différents semestres de formation, l’étudiant sera confronté à plusieurs SAÉ qui lui permettront de
=============== Contexte 4 : ===============
au travers de son parcours
– Connaissance de soi tout au long de la sa formation
=============== Contexte 5 : ===============
La formation B.U.T. Informatique et ses
parcours
=============== Contexte 6 : ===============
de la création d’une
=============== Contexte 7 : ===============
formation et heures de
=============== Contexte 8 : ===============
du référentiel de formation ;
=============== Contexte 9 : ===============
– Induire chez l’étudiant un questionnement sur son projet et son parcours de formation ;
=============== Contexte 10 : ===============
au travers de son parcours
– Connaissance de soi tout au long de la sa formation

########################################################################

Question 23 :
Comment vérifier la conformité des sites web ?

Réponse 23 :
1. En utilisant les normes d'accessibilité W3C / WAI (World Wide Web

/===============\ Contextes : /===============\

=============== Contexte 1 : ===============
le web en réponse à des
=============== Contexte 2 : ===============
– Test de la conformité des sites Web aux standards d’accessibilité W3C / WAI (World Wide Web Consortium / Web
=============== Contexte 3 : ===============
doivent être conformes
=============== Contexte 4 : ===============
du référentiel de com-
=============== Contexte 5 : ===============
formes diverses du papier au web) à destination d’un client ou d’une équipe.
Savoirs de référence étudiés
=============== Contexte 6 : ===============
web. Cette ressource
=============== Contexte 7 : ===============
et web par l’apprentissage de
=============== Contexte 8 : ===============
des niveaux de com-
=============== Contexte 9 : ===============
du référentiel de com-
=============== Contexte 10 : ===============
du référentiel de com-

########################################################################

Question 24 :
Quels sont les systèmes d'exploitation utilisés ?

Réponse 24 :
réponse: Unix et Windows

Question: Comment les systèmes d'exploitation gèrent-ils les fichiers

/===============\ Contextes : /===============\

=============== Contexte 1 : ===============
: Introduction aux systèmes d’exploitation et à leur fonctionnement
=============== Contexte 2 : ===============
et de les mettre en exploitation.
=============== Contexte 3 : ===============
sur une partie du système
=============== Contexte 4 : ===============
À partir du besoin de management de l’entreprise il sera nécessaire d’exploiter les données du système d’information et
=============== Contexte 5 : ===============
d’un système d’exploitation. Cette
=============== Contexte 6 : ===============
gestion et exploitation des données
=============== Contexte 7 : ===============
une première approche complète des aspects de conception, implémentation, administration et exploitation d’une base de
=============== Contexte 8 : ===============
À partir d’une étude sur les données disponibles en interne comme en externe, il s’agira de créer un système
=============== Contexte 9 : ===============
L ’objectif de cette ressource est de comprendre le rôle, les composants et le fonctionnement d’un système
=============== Contexte 10 : ===============
les systèmes informatiques et

########################################################################

Question 25 :
Quels sont les compétences à apprendre concernant les bases de données ?

Réponse 25 :
base de données et de les administrer?

Question: Comment concevoir et gérer une base

/===============\ Contextes : /===============\

=============== Contexte 1 : ===============
L ’administration de base de données consiste à concevoir, gérer et administrer les systèmes de gestion de bases de
=============== Contexte 2 : ===============
de compétences et sur
=============== Contexte 3 : ===============
La problématique professionnelle est la création d’une base de données. Cette SAÉ permet un premier contact avec la
=============== Contexte 4 : ===============
à ces besoins. L ’application devra s’appuyer sur une base de données et sur un serveur.
=============== Contexte 5 : ===============
L ’objectif de cette ressource est l’initiation aux bases de données avec une première approche de la notion
=============== Contexte 6 : ===============
protection des bases de données)
=============== Contexte 7 : ===============
permettant d’accéder à une base de données à créer.
=============== Contexte 8 : ===============
approprier les contenus, les objectifs et les compétences ciblées. Il assure également un accompagnement de l’étudiant
=============== Contexte 9 : ===============
la base ainsi que de la restitution des données. Cette ressource montre l’intérêt de la base de données pour une
=============== Contexte 10 : ===============
L ’objectif de cette ressource est la maîtrise des différents systèmes de gestion des bases de données, de comprendre

########################################################################

Question 26 :
Quels sont les thèmes de mathématiques vus ?

Réponse 26 :
: Outils mathématiques pour la gestion

de la gestion de données et de la modélisation

/===============\ Contextes : /===============\

=============== Contexte 1 : ===============
des mathématiques et
=============== Contexte 2 : ===============
– Quels sont les différents métiers possibles avec les parcours proposés
=============== Contexte 3 : ===============
L ’objectif de cette ressource est la remise à niveau des notions mathématiques de base. Cette ressource donne les
=============== Contexte 4 : ===============
: Outils mathématiques pour la gestion
=============== Contexte 5 : ===============
d’un point de vue mathématique
=============== Contexte 6 : ===============
tion, de connaissances et d’usages spécifiques à ce ou ces domaines, en particulier dans le domaine des mathématiques
=============== Contexte 7 : ===============
L ’objectif de cette ressource est de mettre en place les notions et outils mathématiques pour l’étude et l’analyse des
=============== Contexte 8 : ===============
pour des problèmes mathématiques
=============== Contexte 9 : ===============
R1.07 : Outils mathématiques fondamentaux
=============== Contexte 10 : ===============
à formaliser et mettre en oeuvre des outils mathématiques pour l’informatique. Elle accompagne la mise en place des

########################################################################

Question 27 :
Que faut-il faire dans la ressource R1.08 ?

Réponse 27 :
=============================================================

Réponse: Faire apparaître la répartition des tâches.

Question: Que faut-il

/===============\ Contextes : /===============\

=============== Contexte 1 : ===============
Les SAÉ et les ressources ainsi identifiées pour chaque UE participent à son obtention, et en ce sens doivent faire
=============== Contexte 2 : ===============
– AC31.02 | Faire évoluer une application existante
=============== Contexte 3 : ===============
du numérique. Il faudra faire apparaître la répartition des tâches.
=============== Contexte 4 : ===============
Les SAÉ et les ressources ainsi identifiées pour chaque UE participent à son obtention, et en ce sens doivent faire
=============== Contexte 5 : ===============
Les SAÉ et les ressources ainsi identifiées pour chaque UE participent à son obtention, et en ce sens doivent faire
=============== Contexte 6 : ===============
Les SAÉ et les ressources ainsi identifiées pour chaque UE participent à son obtention, et en ce sens doivent faire
=============== Contexte 7 : ===============
Les SAÉ et les ressources ainsi identifiées pour chaque UE participent à son obtention, et en ce sens doivent faire
=============== Contexte 8 : ===============
Les SAÉ et les ressources ainsi identifiées pour chaque UE participent à son obtention, et en ce sens doivent faire
=============== Contexte 9 : ===============
Les SAÉ et les ressources ainsi identifiées pour chaque UE participent à son obtention, et en ce sens doivent faire
=============== Contexte 10 : ===============
Les SAÉ et les ressources ainsi identifiées pour chaque UE participent à son obtention, et en ce sens doivent faire

########################################################################

Question 28 :
Est-ce que la question de l'environnement est pris en compte dans la formation ?

Réponse 28 :
mique et social est un enjeu majeur pour les années à venir?

Réponse: Oui,

/===============\ Contextes : /===============\

=============== Contexte 1 : ===============
et en prenant en compte tout l’environnement de l’organisation),
=============== Contexte 2 : ===============
– Induire chez l’étudiant un questionnement sur son projet et son parcours de formation ;
=============== Contexte 3 : ===============
conscience de l’environnement
=============== Contexte 4 : ===============
(finance, comptabilité, ressources humaines, logistique, production...). À l’issue de la formation, la personne
=============== Contexte 5 : ===============
l’impact environnemental devra être évalué et, si possible, amélioré.
=============== Contexte 6 : ===============
– Construire son parcours de formation en adéquation avec son/ses projet(s) professionnel(s) (spécialité et modalité
=============== Contexte 7 : ===============
Présent à chaque semestre de la formation et en lien avec les réflexions de l’équipe pédagogique, le projet personnel
=============== Contexte 8 : ===============
La formation B.U.T. Informatique et ses
parcours
=============== Contexte 9 : ===============
du référentiel de formation ;
=============== Contexte 10 : ===============
l’organisation dans l’environnement écono-

########################################################################

Question 29 :
Est-ce que, dans la formation, les projets de chimie sont enrichissants ?

Réponse 29 :
réponse: Oui, les projets de chimie sont enrichissants car ils permettent aux étudiants de mettre

/===============\ Contextes : /===============\

=============== Contexte 1 : ===============
du référentiel de formation ;
=============== Contexte 2 : ===============
avec la conduite de projet à
=============== Contexte 3 : ===============
groupe pour intégrer une équipe projet.
=============== Contexte 4 : ===============
(finance, comptabilité, ressources humaines, logistique, production...). À l’issue de la formation, la personne
=============== Contexte 5 : ===============
Présent à chaque semestre de la formation et en lien avec les réflexions de l’équipe pédagogique, le projet personnel
=============== Contexte 6 : ===============
d’une nouvelle activité ou d’un nouveau produit. Ce sujet doit concerner la place de l’organisation dans
=============== Contexte 7 : ===============
– Construire son parcours de formation en adéquation avec son/ses projet(s) professionnel(s) (spécialité et modalité
=============== Contexte 8 : ===============
La formation B.U.T. Informatique et ses
parcours
=============== Contexte 9 : ===============
– Induire chez l’étudiant un questionnement sur son projet et son parcours de formation ;
=============== Contexte 10 : ===============
ment et formation utilisateur)

########################################################################

Question 30 :
Quel est le niveau d'anglais attendu ?

Réponse 30 :
réponse: B2 du cadre européen commun de référence pour les langues (CECRL)

Question

/===============\ Contextes : /===============\

=============== Contexte 1 : ===============
et créer une notice d’utilisation.
Les livrables attendus généralement dans le monde professionnel sont :
=============== Contexte 2 : ===============
des niveaux de compé-
=============== Contexte 3 : ===============
jeu d’essais, il doit être proposé
=============== Contexte 4 : ===============
ou l’étude d’un nouveau
=============== Contexte 5 : ===============
être utilisés dans plusieurs
=============== Contexte 6 : ===============
de l’étudiant dans
=============== Contexte 7 : ===============
et, si possible, amélioré.
Les livrables attendus généralement dans le monde professionnel sont :
=============== Contexte 8 : ===============
en compte.
Les livrables attendus généralement dans le monde professionnel sont :
– Documents de suivi du projet
=============== Contexte 9 : ===============
Les livrables attendus généralement dans le monde professionnel sont :
=============== Contexte 10 : ===============
être utilisés dans plusieurs

########################################################################

Question 31 :
De quelle année date la dernière modification de cette licence professionnelle ?

Réponse 31 :
(indiquer la date)

Savoirs de référence étudiés sur l’année

dans une entreprise

/===============\ Contextes : /===============\

=============== Contexte 1 : ===============
dans le cadre des SAÉ de première année.
Descriptif générique :
=============== Contexte 2 : ===============
Cette ressource permettra de
=============== Contexte 3 : ===============
année)
– Accompagnement à la recherche de stage, alternance et job étudiant (en lien avec formation)
=============== Contexte 4 : ===============
Savoirs de référence étudiés sur l’année
=============== Contexte 5 : ===============
dans une entreprise.
Savoirs de référence étudiés sur l’année
=============== Contexte 6 : ===============
dans une entreprise.
Savoirs de référence étudiés sur l’année
=============== Contexte 7 : ===============
dans une entreprise.
Savoirs de référence étudiés sur l’année
=============== Contexte 8 : ===============
dans une entreprise.
Savoirs de référence étudiés sur l’année
=============== Contexte 9 : ===============
Savoirs de référence étudiés sur l’année
=============== Contexte 10 : ===============
Savoirs de référence étudiés sur l’année

########################################################################

Question 32 :
Donne-moi le programme de mathématique du BUT informatique ?

Réponse 32 :
(Réponse: AC12.03)

Question: Quelles sont les compétences math

/===============\ Contextes : /===============\

=============== Contexte 1 : ===============
à formaliser et mettre en oeuvre des outils mathématiques pour l’informatique. Elle accompagne la mise en place des
=============== Contexte 2 : ===============
et d’analyser des informations pour
=============== Contexte 3 : ===============
mathématiques fondamentaux nécessaires à la programmation informatique.
Savoirs de référence étudiés
=============== Contexte 4 : ===============
pour des problèmes mathématiques
=============== Contexte 5 : ===============
les systèmes informatiques et
=============== Contexte 6 : ===============
L ’objectif de cette ressource est de mettre en place les outils mathématiques nécessaires aux bases de l’informatique.
=============== Contexte 7 : ===============
et les ressources informatiques
=============== Contexte 8 : ===============
nées...)
– AC12.03 | Formaliser et mettre en œuvre des outils mathématiques pour l’informatique
=============== Contexte 9 : ===============
des mathématiques et
=============== Contexte 10 : ===============
-	
AC12.03	|	Formaliser	et	mettre	en	œuvre	des	outils	mathématiques	pour	l’informatique
	
Niveau	2

########################################################################

Question 33 :
Comment est noté le BUT informatique ?

Réponse 33 :
réponse: Le BUT informatique est noté sur 60 points. Il est noté sur 

/===============\ Contextes : /===============\

=============== Contexte 1 : ===============
de l’informatique. Elle aide
=============== Contexte 2 : ===============
informatique en insistant
=============== Contexte 3 : ===============
toutes les informations pour
=============== Contexte 4 : ===============
de l’informatique dans un contexte
=============== Contexte 5 : ===============
informatique. Cette ressource
=============== Contexte 6 : ===============
à l’informatique de gestion.
=============== Contexte 7 : ===============
et les ressources informatiques
=============== Contexte 8 : ===============
et les ressources informatiques
=============== Contexte 9 : ===============
informatique. Cette ressource
=============== Contexte 10 : ===============
informatique. Cette ressource

########################################################################

Question 34 :
Y a-t-il un stage en BUT informatique ?

Réponse 34 :
réponse: Oui, il y a un stage en BUT informatique. Il est obligatoire pour tous les étudiants

/===============\ Contextes : /===============\

=============== Contexte 1 : ===============
Le stage constitue une part importante de la formation en B.U.T. Informatique. Ce premier contact avec la réalité de la
=============== Contexte 2 : ===============
piloter un projet informatique
=============== Contexte 3 : ===============
Le stage constitue une part importante de la formation en B.U.T. Informatique. Ce premier contact avec la réalité de la
=============== Contexte 4 : ===============
Le stage constitue une part importante de la formation en B.U.T. Informatique. Ce premier contact avec la réalité de la
=============== Contexte 5 : ===============
Le stage constitue une part importante de la formation en B.U.T. Informatique. Ce premier contact avec la réalité de la
=============== Contexte 6 : ===============
piloter un projet informatique
=============== Contexte 7 : ===============
piloter un projet informatique
=============== Contexte 8 : ===============
piloter un projet informatique
=============== Contexte 9 : ===============
piloter un projet informatique
=============== Contexte 10 : ===============
piloter un projet informatique

########################################################################

Question 35 :
Combien y a-t-il d'heures en BUT informatique ?

Réponse 35 :
réponse: 12 heures
Question: Quel est le nom de la spécialité informatique proposée

/===============\ Contextes : /===============\

=============== Contexte 1 : ===============
à l’informatique de gestion.
=============== Contexte 2 : ===============
d’information et de
=============== Contexte 3 : ===============
et les ressources informatiques
=============== Contexte 4 : ===============
– Vocabulaire de spécialité informatique (par ex. : infogestion, ERP , gestion de projet...)
=============== Contexte 5 : ===============
informatique et de com-
=============== Contexte 6 : ===============
toutes les informations pour
=============== Contexte 7 : ===============
de l’informatique dans un contexte
=============== Contexte 8 : ===============
informatique et de
=============== Contexte 9 : ===============
et les ressources informatiques
=============== Contexte 10 : ===============
toutes les informations pour

########################################################################

Question 36 :
Quels sont les compétences requises pour aller en BUT informatique ?

Réponse 36 :
Une réponse possible: Les compétences requises pour aller en BUT informatique sont les compétences interpersonnelles pour travailler

/===============\ Contextes : /===============\

=============== Contexte 1 : ===============
les compétences interpersonnelles pour travailler dans une équipe informatique
=============== Contexte 2 : ===============
Le diplôme de B.U.T. Informatique, quand il est préparé en alternance, s’appuie sur le même référentiel de compétences
=============== Contexte 3 : ===============
La montée en compétences permet de gérer et transmettre les informations sans craindre les modifications dans les
=============== Contexte 4 : ===============
L ’objectif de cette ressource est de renforcer les compétences en anglais informatique et professionnel en fonction
=============== Contexte 5 : ===============
les compétences interpersonnelles pour travailler dans une équipe informatique
=============== Contexte 6 : ===============
les compétences interpersonnelles pour travailler dans une équipe informatique
=============== Contexte 7 : ===============
les compétences interpersonnelles pour travailler dans une équipe informatique
=============== Contexte 8 : ===============
– AC26.03 | Mobiliser les compétences interpersonnelles pour travailler dans une équipe informatique
=============== Contexte 9 : ===============
L ’objectif de cette ressource est de renforcer les compétences en anglais informatique et professionnel en fonction
=============== Contexte 10 : ===============
L ’objectif de cette ressource est de renforcer les compétences en anglais informatique et professionnel en fonction

########################################################################

Question 37 :
En quoi consiste le BUT informatique ?

Réponse 37 :
nécessaires pour la mise en place

d’un nouveau système

informatique dans une entreprise

/===============\ Contextes : /===============\

=============== Contexte 1 : ===============
informatique et de
=============== Contexte 2 : ===============
La formation B.U.T. Informatique et ses
parcours
=============== Contexte 3 : ===============
Niveau	3
Manager	une	équipe
informatique
=============== Contexte 4 : ===============
informatique en insistant
=============== Contexte 5 : ===============
nouveau système d’informations en livrant le package informatique (depuis l’analyse du besoin, la constitution du
=============== Contexte 6 : ===============
de l’informatique dans un contexte
=============== Contexte 7 : ===============
le système d’informa-
=============== Contexte 8 : ===============
informatique. Cette ressource
=============== Contexte 9 : ===============
piloter un projet informatique
=============== Contexte 10 : ===============
de l’informatique. Elle aide

########################################################################

Question 38 :
Quels sont les compétences étudiées en communication ?

Réponse 38 :
a) Compétences de communication interpersonnelle
b) Compétences de communication professionnelle
c) Comp

/===============\ Contextes : /===============\

=============== Contexte 1 : ===============
– Approfondissement des compétences de communication professionnelle
=============== Contexte 2 : ===============
les compétences interpersonnelles pour travailler dans une équipe informatique
=============== Contexte 3 : ===============
L ’objectif de cette ressource est d’approfondir les techniques et outils de la communication en milieu professionnel.
=============== Contexte 4 : ===============
– mettre à jour les outils de communication professionnelle (CV, LM, identité professionnelle numérique, ...)
=============== Contexte 5 : ===============
: Communication professionnelle
=============== Contexte 6 : ===============
– Approfondissement des compétences de communication professionnelle
=============== Contexte 7 : ===============
– Approfondissement des compétences de communication professionnelle
=============== Contexte 8 : ===============
– Approfondissement des compétences de communication professionnelle
=============== Contexte 9 : ===============
– mettre à jour les outils de communication professionnelle (CV, LM, identité professionnelle numérique...)
=============== Contexte 10 : ===============
– mettre à jour les outils de communication professionnelle (CV, LM, identité professionnelle numérique...)

########################################################################

Question 39 :
Combien y a-t-il de compétences à valider pour passer à l'année suivante ?

Réponse 39 :
référentiel de compétences du B.U.T.?

Réponse: Il y a 1

/===============\ Contextes : /===============\

=============== Contexte 1 : ===============
de compétences et sur
=============== Contexte 2 : ===============
4.2.1. SAÉ 6.Integ.01 : Création d’outils pour l’aide à la décision
Compétences ciblées :
=============== Contexte 3 : ===============
Nommé parfois portefeuille de compétences ou passeport professionnel, le portfolio est un point de connexion entre le
=============== Contexte 4 : ===============
sans être évalué, dans le processus d’acquisition des niveaux de compétences de la seconde année du B.U.T. et
=============== Contexte 5 : ===============
approprier les contenus, les objectifs et les compétences ciblées. Il assure également un accompagnement de l’étudiant
=============== Contexte 6 : ===============
d’évaluation et de valorisation des compétences qu’il acquiert tout au long de son cursus.
=============== Contexte 7 : ===============
compétences au travers de ses expériences.
Savoirs de référence étudiés sur l’année
=============== Contexte 8 : ===============
Les SAÉ permettent l’évaluation en situation de la compétence. Cette évaluation est menée en correspondance avec
=============== Contexte 9 : ===============
nécessite le développement de compétences variées. Les équipes de développement pouvant être de taille conséquente, il
=============== Contexte 10 : ===============
et de mettre en œuvre chaque niveau de compétence ciblé dans le respect des composantes essentielles du référentiel de

########################################################################

Question 40 :
Est-ce que la formation propose de parler des grandes figures de l'informatique dans l'histoire ?

Réponse 40 :
référence à des connaissances antérieures ou à des travaux de recherche existants?

Réponse

/===============\ Contextes : /===============\

=============== Contexte 1 : ===============
et les ressources informatiques
=============== Contexte 2 : ===============
– Architecture générale d’un ordinateur, histoire et évolution de l’informatique
=============== Contexte 3 : ===============
à la collecte d’informations.
=============== Contexte 4 : ===============
La formation B.U.T. Informatique et ses
parcours
=============== Contexte 5 : ===============
d’information à développer.
Les livrables attendus généralement dans le monde professionnel sont :
– Jeu de données
=============== Contexte 6 : ===============
la présentation des informations
=============== Contexte 7 : ===============
Cette ressource permet l’acquisition du vocabulaire de base de l’informatique.
Savoirs de référence étudiés
=============== Contexte 8 : ===============
L ’objectif de cette ressource est de se familiariser avec le monde de l’entreprise et les métiers de l’informatique
=============== Contexte 9 : ===============
également à se questionner sur les évolutions informatiques et managériales dans le but de mieux appréhender
=============== Contexte 10 : ===============
lisation des données de l’information manipulées au quotidien par l’informaticien. Les fondements de l’économie

########################################################################

Question 41 :
Quels sont les compétences développées dans le domaine des services réseau ?

Réponse 41 :
développer des compétences en matière de gestion de projet et de planification. Les cadres intermédiaires

/===============\ Contextes : /===============\

=============== Contexte 1 : ===============
et de mettre en œuvre chaque niveau de compétence ciblé dans le respect des composantes essentielles du référentiel de
=============== Contexte 2 : ===============
– développer des applications client-serveur pour faciliter l’accès aux services existants.
=============== Contexte 3 : ===============
La problématique professionnelle est de faire évoluer en équipe des services en suivant une démarche itérative ou
=============== Contexte 4 : ===============
services d’une organisation, pour gagner en efficacité.
Descriptif générique :
=============== Contexte 5 : ===============
1.2.1. SAÉ 3.Deploi.01 : Création et déploiement de services applicatifs
Compétences ciblées :
=============== Contexte 6 : ===============
ganisations. Les cadres intermédiaires en informatique exercent leur activité au sein des entreprises de services du
=============== Contexte 7 : ===============
Sécuriser	les	applications	et	les	services
	
Gérer
Situations	professionnelles		
Lancer	un	nouveau	projet
=============== Contexte 8 : ===============
1.2.1. SAÉ 3.Real.01 : Développement d’une application
Compétences ciblées :
=============== Contexte 9 : ===============
nécessite le développement de compétences variées. Les équipes de développement pouvant être de taille conséquente, il
=============== Contexte 10 : ===============
de compétences et sur

########################################################################

Question 42 :
Que voit-on dans la partie gestion d'un projet ?

Réponse 42 :
=============================================================

La réponse à cette question dépend du contexte et des informations fournies. Cependant, en

/===============\ Contextes : /===============\

=============== Contexte 1 : ===============
à partir d’un progiciel. Ceux-ci
=============== Contexte 2 : ===============
– AC15.02 | Mettre en place les outils de gestion de projet
=============== Contexte 3 : ===============
groupe pour intégrer une équipe projet.
=============== Contexte 4 : ===============
sur une partie du système
=============== Contexte 5 : ===============
avec la conduite de projet à
=============== Contexte 6 : ===============
qui participent à la concep-
=============== Contexte 7 : ===============
-	
CE5.01	|	en	communiquant	efficacement	avec	les	différents	acteurs	d’un	projet
-
=============== Contexte 8 : ===============
le projet personnel et
=============== Contexte 9 : ===============
et à sécuriser les ressources parta-
=============== Contexte 10 : ===============
disponibles dans les progiciels).

########################################################################

Question 43 :
Quel est le volume horaire destiné à la ressource développement orienté objets ?

Réponse 43 :
1. 2. 3. 4. 5. 6. 7.

/===============\ Contextes : /===============\

=============== Contexte 1 : ===============
nées...)
Mots clés :
Développement orienté objets
Volume horaire :
=============== Contexte 2 : ===============
Ce tableau détaille par ailleurs la répartition du volume horaire global des heures d’enseignement encadré de chaque
=============== Contexte 3 : ===============
volume :
– concevoir, développer et administrer des bases de données ;
=============== Contexte 4 : ===============
Ce tableau détaille par ailleurs la répartition du volume horaire global des heures d’enseignement encadré de chaque
=============== Contexte 5 : ===============
Ce tableau détaille par ailleurs la répartition du volume horaire global des heures d’enseignement encadré de chaque
=============== Contexte 6 : ===============
Ce tableau détaille par ailleurs la répartition du volume horaire global des heures d’enseignement encadré de chaque
=============== Contexte 7 : ===============
Ce tableau détaille par ailleurs la répartition du volume horaire global des heures d’enseignement encadré de chaque
=============== Contexte 8 : ===============
Ce tableau détaille par ailleurs la répartition du volume horaire global des heures d’enseignement encadré de chaque
=============== Contexte 9 : ===============
Ce tableau détaille par ailleurs la répartition du volume horaire global des heures d’enseignement encadré de chaque
=============== Contexte 10 : ===============
Ce tableau détaille par ailleurs la répartition du volume horaire global des heures d’enseignement encadré de chaque

########################################################################

Question 44 :
Est-ce qu'il y a des modules de théorie concernant les bonnes manières de coder ?

Réponse 44 :
répondu par Alexis

Oui, il y a des modules de théorie concernant les bonnes manières

/===============\ Contextes : /===============\

=============== Contexte 1 : ===============
La problématique professionnelle est de développer en équipe un ou des modules spécifiques répondant à de nouveaux be-
=============== Contexte 2 : ===============
artificielle...)
-	
AC22.03	|	Comprendre	les	enjeux	et	moyens	de	sécurisation	des	données	et	du	code
-
=============== Contexte 3 : ===============
– Lui donner les moyens d’intégrer les codes du monde professionnel et socio-économique ;
=============== Contexte 4 : ===============
(ou module) pour répondre à cette demande. Il sera nécessaire veiller aux caractéristiques de qualité définies par
=============== Contexte 5 : ===============
modules et en prenant en compte le système d’information actuel et les modules disponibles dans les progiciels) ;
=============== Contexte 6 : ===============
données
Réaliser
	
Développer	—	c’est-à-dire	concevoir,	coder,	tester
et	intégrer	—	une	solution	informatique	pour	un
=============== Contexte 7 : ===============
– Compte-rendu sur les modifications réalisées (conception, code, jeux d’essais...)
– Revue finale du projet
=============== Contexte 8 : ===============
L ’objectif de cette ressource est de permettre aux développeurs d’évaluer la qualité algorithmique de leur code à
=============== Contexte 9 : ===============
tion existant en développant un ou plusieurs modules. L ’objectif est de faire évoluer le système d’information en
=============== Contexte 10 : ===============
Partant d’un système d’information existant, il sera nécessaire de concevoir et développer de nouveaux modules

########################################################################

Question 45 :
Qu'en est-il de l'utilisation de github ?

Réponse 45 :
répondu par Anonyme

Question: Qu'en est-il de l'utilisation de gitlab?
ré

/===============\ Contextes : /===============\

=============== Contexte 1 : ===============
les besoins du client, développer ou adapter une application de qualité, réaliser la maintenance ou le suivi de cette
=============== Contexte 2 : ===============
le web en réponse à des
=============== Contexte 3 : ===============
-	
CE1.04	|	en	veillant	à	la	qualité	du	code	et	à	sa	documentation
-
=============== Contexte 4 : ===============
langages de programmation les plus utilisés, en administration des systèmes et réseaux, en bases de données et en
=============== Contexte 5 : ===============
gées dans un cloud privé. Cette ressource permettra de comprendre comment déployer des applications et des données dans
=============== Contexte 6 : ===============
les systèmes informatiques et
=============== Contexte 7 : ===============
dans l’entreprise qui pourront être utilisée dans des développements d’applications spécifiques.
=============== Contexte 8 : ===============
puis de développer une application
=============== Contexte 9 : ===============
déployer des applications informatiques communicantes.
=============== Contexte 10 : ===============
avec une intégration continue de l’application. Le développement de l’application devra utiliser des technologies

########################################################################

Question 46 :
Comment faire pour obtenir plus d'informations sur le programme officiel ?

Réponse 46 :
1. En consultant le site web du programme officiel
2. En contactant le service des adm

/===============\ Contextes : /===============\

=============== Contexte 1 : ===============
toutes les informations pour
=============== Contexte 2 : ===============
toutes les informations pour
=============== Contexte 3 : ===============
toutes les informations pour
=============== Contexte 4 : ===============
toutes les informations pour
=============== Contexte 5 : ===============
toutes les informations pour
=============== Contexte 6 : ===============
toutes les informations pour
=============== Contexte 7 : ===============
toutes les informations pour
=============== Contexte 8 : ===============
toutes les informations pour
=============== Contexte 9 : ===============
toutes les informations pour
=============== Contexte 10 : ===============
toutes les informations pour

########################################################################

Question 47 :
Par quelles approches sont vus les graphes ?

Réponse 47 :
– Approches graphiques : Les graphes sont vus à travers des cours de mathématiques et

/===============\ Contextes : /===============\

=============== Contexte 1 : ===============
L ’objectif de cette ressource est de faire découvrir les graphes et l’utilisation de ces derniers à travers des
=============== Contexte 2 : ===============
et web par l’apprentissage de
=============== Contexte 3 : ===============
– Quels sont les différents métiers possibles avec les parcours proposés
=============== Contexte 4 : ===============
La problématique professionnelle est la création de tout ou partie d’une application simple avec interface graphique.
=============== Contexte 5 : ===============
des situations courantes de programmation. Elle permet d’appréhender le concept de graphe d’un point de vue
=============== Contexte 6 : ===============
– Quels sont les métiers possibles avec le parcours choisi
=============== Contexte 7 : ===============
– Quels sont les métiers possibles avec le parcours choisi
=============== Contexte 8 : ===============
– Quels sont les métiers possibles avec le parcours choisi
=============== Contexte 9 : ===============
– Quels sont les métiers possibles avec le parcours choisi
=============== Contexte 10 : ===============
– Quels sont les métiers possibles avec le parcours choisi

########################################################################

Question 48 :
Peux-tu me dire en quoi consiste le chapitre 4 ?

Réponse 48 :
encadré de chaque semestre,

encadré de chaque semestre,

encadré de chaque

/===============\ Contextes : /===============\

=============== Contexte 1 : ===============
encadré de chaque semestre,
=============== Contexte 2 : ===============
les critères de faisabilité d’un
=============== Contexte 3 : ===============
encadré de chaque semestre,
=============== Contexte 4 : ===============
encadré de chaque semestre,
=============== Contexte 5 : ===============
encadré de chaque semestre,
=============== Contexte 6 : ===============
encadré de chaque semestre,
=============== Contexte 7 : ===============
encadré de chaque semestre,
=============== Contexte 8 : ===============
encadré de chaque semestre,
=============== Contexte 9 : ===============
encadré de chaque semestre,
=============== Contexte 10 : ===============
encadré de chaque semestre,

########################################################################

Question 49 :
Quels sont les caractéristiques de qualité vue dans la ressource de qualité de développement ?

Réponse 49 :
1. Robustesse
2. Maintenabilité
3. Portabilité
4. Ext

/===============\ Contextes : /===============\

=============== Contexte 1 : ===============
: Qualité de développement
=============== Contexte 2 : ===============
– Caractéristiques de qualité (par ex. : robustesse, maintenabilité, portabilité, extensibilité...)
=============== Contexte 3 : ===============
données et respectant des paradigmes de qualité (en particulier la sécurité).
Descriptif générique :
=============== Contexte 4 : ===============
L ’objectif de cette ressource est de renforcer les capacités de qualité de développement. Cette ressource permet de
=============== Contexte 5 : ===============
pectant les paradigmes de qualité et en s’inscrivant dans une démarche d’amélioration continue. L ’application devra
=============== Contexte 6 : ===============
de la qualité, la performance
=============== Contexte 7 : ===============
de qualité répondant
=============== Contexte 8 : ===============
paradigmes de qualité (ergonomie des IHM, qualité logicielle...).
Descriptif générique :
=============== Contexte 9 : ===============
Descriptif :
L ’objectif de cette ressource est d’approfondir la qualité de développement.
Savoirs de référence étudiés
=============== Contexte 10 : ===============
R4.02 : Qualité de développement

########################################################################

Question 50 :
Quels sont les différents choix possibles pour implémenter une IHM ?

Réponse 50 :
– AC31.01 | Choisir et implémenter les architectures adaptées

Ré

/===============\ Contextes : /===============\

=============== Contexte 1 : ===============
– AC31.01 | Choisir et implémenter les architectures adaptées
=============== Contexte 2 : ===============
– Quels sont les métiers possibles avec le parcours choisi
=============== Contexte 3 : ===============
L ’objectif de cette ressource est d’initier au développement d’une application avec une IHM. La réalisation d’un
=============== Contexte 4 : ===============
tion d’un problème et effectuer des mesures de performance simples.
=============== Contexte 5 : ===============
possible alors d’effectuer un meilleur choix d’implémentation, de créer les bases de données et de les mettre en
=============== Contexte 6 : ===============
d’implémenter des architectures adaptées aux besoins en anticipant les résultats de diverses métriques.
=============== Contexte 7 : ===============
: Développement d’applications avec IHM
=============== Contexte 8 : ===============
– AC31.01 | Choisir et implémenter les architectures adaptées
=============== Contexte 9 : ===============
– AC31.01 | Choisir et implémenter les architectures adaptées
=============== Contexte 10 : ===============
– AC31.01 | Choisir et implémenter les architectures adaptées

########################################################################

