text_splitter = RecursiveCharacterTextSplitter(chunk_size=150, chunk_overlap=30)
retriever = vectorstore.as_retriever(
    search_type="similarity_score_threshold",
    search_kwargs={"score_threshold": 0.5, "k": 10}
)


Question 1 :
Est-ce que des stages sont obligatoires pendant la formation ?

Réponse 1 :
=========================================================

Réponse: Oui, des stages sont obligatoires pendant la formation. Les étudiants sont tenus de réaliser un stage obligatoire au cours de leur formation.

2. Contenu de la SAÉ..........

/===============\ Contexte : /===============\

=============== Contexte 1 : ===============
Au cours des différents semestres de formation, l’étudiant sera confronté à plusieurs SAÉ qui lui permettront de développer
=============== Contexte 2 : ===============
1. Objectifs de la formation . . . . . . . . . . . . . . . . . . . . . . . . . . . . . . . . . . . . . . . . . . . . . . . . . . 10

########################################################################

Question 2 :
Combien de temps durent les stages ?

Réponse 2 :
 Réponse: Les stages peuvent varier en durée selon les entreprises et les formations. Généralement, les stages durent entre 2 et 6 mois, mais cela peut aller jusqu'à 12 mois pour certaines formations professionnelles. Il est important de bien se

/===============\ Contexte : /===============\


########################################################################

Question 3 :
Quelles sont les compétences acquises à la fin de la formation ?

Réponse 3 :
réflexion et de développement personnel)?

Réponse: Les compétences acquises à la fin de la formation sont les compétences transversales et spécifiques à la spécialité choisie par l’étudiant. Ces compétences sont développées à travers les

/===============\ Contexte : /===============\

=============== Contexte 1 : ===============
professionnel est un élément structurant qui permet à l’étudiant d’être l’acteur de sa formation, d’en comprendre et de s’en
=============== Contexte 2 : ===============
1. Objectifs de la formation . . . . . . . . . . . . . . . . . . . . . . . . . . . . . . . . . . . . . . . . . . . . . . . . . . 10
=============== Contexte 3 : ===============
– S’approprier les compétences de la formation – identifier les blocs de compétences
=============== Contexte 4 : ===============
– S’approprier les compétences de la formation – identifier les blocs de compétences
=============== Contexte 5 : ===============
comme objectif de donner du sens à ces données et d’en extraire de la valeur pour aider l’organisation à prendre des
=============== Contexte 6 : ===============
Au cours des différents semestres de formation, l’étudiant sera confronté à plusieurs SAÉ qui lui permettront de développer
=============== Contexte 7 : ===============
– Une meilleure appréhension des objectifs de la formation, du référentiel de compétences et du référentiel de formation ;
=============== Contexte 8 : ===============
données et d’en extraire de la valeur pour aider l’organisation à prendre des décisions stratégiques ou opérationnelles.
=============== Contexte 9 : ===============
– Induire chez l’étudiant un questionnement sur son projet et son parcours de formation ;
=============== Contexte 10 : ===============
– Construire son parcours de formation en adéquation avec son/ses projet(s) professionnel(s) (spécialité et modalité

########################################################################

Question 4 :
Quel est le contenu du parcours déploiement d’applications communicantes et sécurisées ?

Réponse 4 :
1.2.1. SAÉ 3.Real.01 : Développement d’une application

1. Semestre 3
1.1. Tableau croisé

– Gérer la sécurité du système (audit, protection, politique de

/===============\ Contexte : /===============\

=============== Contexte 1 : ===============
1.2. Le parcours : B : Déploiement d’applications communicantes et sécurisées . . . . . . . . . . . . . . . . . 11
=============== Contexte 2 : ===============
2. Parcours : B : Déploiement d’applications communicantes et sécurisées . . . . . . . . . . . . . . . . . . . . . . . 25
=============== Contexte 3 : ===============
5. Parcours : B : Déploiement d’applications communicantes et sécurisées 177
=============== Contexte 4 : ===============
En outre, la personne titulaire du B.U.T. Informatique parcours Déploiement d’applications communicantes et sécurisées dis-
=============== Contexte 5 : ===============
communicantes et sécurisées - Administration, gestion et exploitation des données - Intégration d'applications et management du système d'information
=============== Contexte 6 : ===============
1.2.1. SAÉ 3.Real.01 : Développement d’une application
Compétences ciblées :
=============== Contexte 7 : ===============
communicantes et sécurisées
1. Semestre 3
1.1. Tableau croisé
=============== Contexte 8 : ===============
– Gérer la sécurité du système (audit, protection, politique de sécurité, RGPD...)
=============== Contexte 9 : ===============
Ce parcours forme des cadres intermédiaires capables :
=============== Contexte 10 : ===============
Ce parcours forme des cadres intermédiaires capables :

########################################################################

Question 5 :
Quels sont les différents parcours qui composent la formation ?

Réponse 5 :
1.4. Le parcours : D : Développement web et mobile.....................................

/===============\ Contexte : /===============\

=============== Contexte 1 : ===============
1. Objectifs de la formation . . . . . . . . . . . . . . . . . . . . . . . . . . . . . . . . . . . . . . . . . . . . . . . . . . 10
=============== Contexte 2 : ===============
– Quels sont les différents métiers possibles avec les parcours proposés
=============== Contexte 3 : ===============
– Quels sont les différents métiers possibles avec les parcours proposés
=============== Contexte 4 : ===============
– Quels sont les différents métiers possibles avec les parcours proposés
=============== Contexte 5 : ===============
– Quels sont les différents métiers possibles avec les parcours proposés
=============== Contexte 6 : ===============
– Quels sont les différents métiers possibles avec les parcours proposés
=============== Contexte 7 : ===============
– Quels sont les différents métiers possibles avec les parcours proposés
=============== Contexte 8 : ===============
– Quels sont les différents métiers possibles avec les parcours proposés
=============== Contexte 9 : ===============
– Quels sont les différents métiers possibles avec les parcours proposés
=============== Contexte 10 : ===============
1.3. Le parcours : C : Administration, gestion et exploitation des données . . . . . . . . . . . . . . . . . . . . . 11

########################################################################

Question 6 :
Qu'apprend-on en ce qui concerne l'entrepreneuriat ?

Réponse 6 :
(Réponse : L'apprentissage de la gestion d'équipe et de la prise de décision en entrepreneuriat)

Question: Qu'apprend-on en ce qui concerne la gestion d'équipe?
(Réponse : L'apprentissage des compétences en leadership,

/===============\ Contexte : /===============\

=============== Contexte 1 : ===============
4.3.1. Ressource R6.01 : Initiation à l’entrepreneuriat
Compétence ciblée :
=============== Contexte 2 : ===============
4.3.1. Ressource R6.01 : Initiation à l’entrepreneuriat
Compétence ciblée :
=============== Contexte 3 : ===============
4.3.1. Ressource R6.01 : Initiation à l’entrepreneuriat
Compétence ciblée :
=============== Contexte 4 : ===============
4.3.1. Ressource R6.01 : Initiation à l’entrepreneuriat
Compétence ciblée :
=============== Contexte 5 : ===============
4.3.1. Ressource R6.01 : Initiation à l’entrepreneuriat . . . . . . . . . . . . . . . . . . . . . . . . . . . . 374
=============== Contexte 6 : ===============
4.3.1. Ressource R6.01 : Initiation à l’entrepreneuriat . . . . . . . . . . . . . . . . . . . . . . . . . . . . 307
=============== Contexte 7 : ===============
4.3.1. Ressource R6.01 : Initiation à l’entrepreneuriat . . . . . . . . . . . . . . . . . . . . . . . . . . . . 239
=============== Contexte 8 : ===============
4.3.1. Ressource R6.01 : Initiation à l’entrepreneuriat . . . . . . . . . . . . . . . . . . . . . . . . . . . . 170
=============== Contexte 9 : ===============
Descriptif :
L ’objectif de cette ressource consiste à approfondir la gestion d’équipe et l’entrepreneuriat.
Savoirs de référence étudiés
=============== Contexte 10 : ===============
(tant au national qu’à l’international), VAE, formation tout au long de la vie, entrepreneuriat

########################################################################

Question 7 :
Combien y a-t-il de niveaux de compétences ?

Réponse 7 :
réponse: Il y a 5 niveaux de compétences.

Question: Quel est le niveau de compétence le plus élevé?
réponse: Le niveau de compétence le plus élevé est le niveau 5.

Question: Quel est le niveau de compétence

/===============\ Contexte : /===============\

=============== Contexte 1 : ===============
le degré de complexité des niveaux de compétences ciblés, tout en s’appuyant sur l’ensemble des mises en situation proposées
=============== Contexte 2 : ===============
le parcours suivi et le degré de complexité des niveaux de compétences ciblés, tout en s’appuyant sur l’ensemble des mises
=============== Contexte 3 : ===============
le parcours suivi et le degré de complexité des niveaux de compétences ciblés, tout en s’appuyant sur l’ensemble des mises
=============== Contexte 4 : ===============
le parcours suivi et le degré de complexité des niveaux de compétences ciblés, tout en s’appuyant sur l’ensemble des mises
=============== Contexte 5 : ===============
le parcours suivi et le degré de complexité des niveaux de compétences ciblés, tout en s’appuyant sur l’ensemble des mises
=============== Contexte 6 : ===============
le parcours suivi et le degré de complexité des niveaux de compétences ciblés, tout en s’appuyant sur l’ensemble des mises
=============== Contexte 7 : ===============
le parcours suivi et le degré de complexité des niveaux de compétences ciblés, tout en s’appuyant sur l’ensemble des mises
=============== Contexte 8 : ===============
le parcours suivi et le degré de complexité des niveaux de compétences ciblés, tout en s’appuyant sur l’ensemble des mises
=============== Contexte 9 : ===============
le parcours suivi et le degré de complexité des niveaux de compétences ciblés, tout en s’appuyant sur l’ensemble des mises
=============== Contexte 10 : ===============
Compétences ciblées :

########################################################################

Question 8 :
Qu'est-ce que sont les SAE ?

Réponse 8 :
Une SAE (Service Activity Education) est une activité d'apprentissage qui permet aux étudiants d'acquérir des connaissances et des compétences dans un domaine spécifique. Les SAE peuvent être organisées en cours ou en projets, et elles peuvent être réalisées en classe

/===============\ Contexte : /===============\

=============== Contexte 1 : ===============
Les SAÉ et les ressources ainsi identifiées pour chaque UE participent à son obtention, et en ce sens doivent faire l’objet d’une
=============== Contexte 2 : ===============
Les SAÉ et les ressources ainsi identifiées pour chaque UE participent à son obtention, et en ce sens doivent faire l’objet d’une
=============== Contexte 3 : ===============
Les SAÉ et les ressources ainsi identifiées pour chaque UE participent à son obtention, et en ce sens doivent faire l’objet d’une
=============== Contexte 4 : ===============
Les SAÉ et les ressources ainsi identifiées pour chaque UE participent à son obtention, et en ce sens doivent faire l’objet d’une
=============== Contexte 5 : ===============
Les SAÉ et les ressources ainsi identifiées pour chaque UE participent à son obtention, et en ce sens doivent faire l’objet d’une
=============== Contexte 6 : ===============
Les SAÉ et les ressources ainsi identifiées pour chaque UE participent à son obtention, et en ce sens doivent faire l’objet d’une
=============== Contexte 7 : ===============
Les SAÉ et les ressources ainsi identifiées pour chaque UE participent à son obtention, et en ce sens doivent faire l’objet d’une
=============== Contexte 8 : ===============
Les SAÉ et les ressources ainsi identifiées pour chaque UE participent à son obtention, et en ce sens doivent faire l’objet d’une
=============== Contexte 9 : ===============
Les SAÉ et les ressources ainsi identifiées pour chaque UE participent à son obtention, et en ce sens doivent faire l’objet d’une
=============== Contexte 10 : ===============
Les SAÉ et les ressources ainsi identifiées pour chaque UE participent à son obtention, et en ce sens doivent faire l’objet d’une

########################################################################

Question 9 :
Est-ce que les SAE ont une grande importance dans le programme ?

Réponse 9 :
=============================================================

Réponse: Oui, les SAE ont une grande importance dans le programme. Elles contribuent à l'obtention des crédits nécessaires pour chaque unité d'enseignement (UE) et elles sont essentielles pour atteindre les objectifs du programme. Les SA

/===============\ Contexte : /===============\

=============== Contexte 1 : ===============
Les SAÉ et les ressources ainsi identifiées pour chaque UE participent à son obtention, et en ce sens doivent faire l’objet d’une
=============== Contexte 2 : ===============
Les SAÉ et les ressources ainsi identifiées pour chaque UE participent à son obtention, et en ce sens doivent faire l’objet d’une
=============== Contexte 3 : ===============
Les SAÉ et les ressources ainsi identifiées pour chaque UE participent à son obtention, et en ce sens doivent faire l’objet d’une
=============== Contexte 4 : ===============
Les SAÉ et les ressources ainsi identifiées pour chaque UE participent à son obtention, et en ce sens doivent faire l’objet d’une
=============== Contexte 5 : ===============
Les SAÉ et les ressources ainsi identifiées pour chaque UE participent à son obtention, et en ce sens doivent faire l’objet d’une
=============== Contexte 6 : ===============
Les SAÉ et les ressources ainsi identifiées pour chaque UE participent à son obtention, et en ce sens doivent faire l’objet d’une
=============== Contexte 7 : ===============
Les SAÉ et les ressources ainsi identifiées pour chaque UE participent à son obtention, et en ce sens doivent faire l’objet d’une
=============== Contexte 8 : ===============
Les SAÉ et les ressources ainsi identifiées pour chaque UE participent à son obtention, et en ce sens doivent faire l’objet d’une
=============== Contexte 9 : ===============
Les SAÉ et les ressources ainsi identifiées pour chaque UE participent à son obtention, et en ce sens doivent faire l’objet d’une
=============== Contexte 10 : ===============
Les SAÉ et les ressources ainsi identifiées pour chaque UE participent à son obtention, et en ce sens doivent faire l’objet d’une

########################################################################

Question 10 :
Qu'est-ce que le portfolio ?

Réponse 10 :
réponse: Le portfolio est un document qui présente les réalisations et les compétences d'un individu dans un domaine spécifique. Il est utilisé pour montrer aux employeurs potentiels comment un individu a acquis des compétences et des connaissances dans un domaine particulier. Le portfolio peut

/===============\ Contexte : /===============\

=============== Contexte 1 : ===============
3. La démarche portfolio
Nommé parfois portefeuille de compétences ou passeport professionnel, le portfolio est un point de connexion entre le monde
=============== Contexte 2 : ===============
portfolio ne doivent pourtant être confondus. Le PPP répond davantage à un objectif d’accompagnement qui dépasse le seul
=============== Contexte 3 : ===============
Au semestre 5, la démarche portfolio consistera en un point étape intermédiaire qui permettra à l’étudiant de se positionner,
=============== Contexte 4 : ===============
Au semestre 5, la démarche portfolio consistera en un point étape intermédiaire qui permettra à l’étudiant de se positionner,
=============== Contexte 5 : ===============
Au semestre 5, la démarche portfolio consistera en un point étape intermédiaire qui permettra à l’étudiant de se positionner,
=============== Contexte 6 : ===============
Au semestre 5, la démarche portfolio consistera en un point étape intermédiaire qui permettra à l’étudiant de se positionner,
=============== Contexte 7 : ===============
Au semestre 3, la démarche portfolio consistera en un point étape intermédiaire qui permettra à l’étudiant de se positionner,
=============== Contexte 8 : ===============
Au semestre 3, la démarche portfolio consistera en un point étape intermédiaire qui permettra à l’étudiant de se positionner,
=============== Contexte 9 : ===============
Au semestre 3, la démarche portfolio consistera en un point étape intermédiaire qui permettra à l’étudiant de se positionner,
=============== Contexte 10 : ===============
Au semestre 3, la démarche portfolio consistera en un point étape intermédiaire qui permettra à l’étudiant de se positionner,

########################################################################

Question 11 :
Quelles sont les compétences ciblées dans le portfolio ?

Réponse 11 :
réponse: Les compétences ciblées dans le portfolio sont les compétences nécessaires pour gérer et exploiter les données de l’entreprise et les mettre à disposition pour les utilisateurs internes et externes.

Question: Comment le portfolio est-il évalué?
réponse: Le portfolio

/===============\ Contexte : /===============\

=============== Contexte 1 : ===============
3. La démarche portfolio
Nommé parfois portefeuille de compétences ou passeport professionnel, le portfolio est un point de connexion entre le monde
=============== Contexte 2 : ===============
cadre des compétences à acquérir, alors que la démarche portfolio répond fondamentalement à des enjeux d’évaluation des
compétences.
=============== Contexte 3 : ===============
Compétences ciblées :
– Concevoir, gérer, administrer et exploiter les données de l’entreprise et mettre à disposition toutes les informations pour
=============== Contexte 4 : ===============
Compétences ciblées :
– Concevoir, gérer, administrer et exploiter les données de l’entreprise et mettre à disposition toutes les informations pour
=============== Contexte 5 : ===============
Compétences ciblées :
– Concevoir, gérer, administrer et exploiter les données de l’entreprise et mettre à disposition toutes les informations pour
=============== Contexte 6 : ===============
Compétences ciblées :
– Concevoir, gérer, administrer et exploiter les données de l’entreprise et mettre à disposition toutes les informations pour
=============== Contexte 7 : ===============
Compétences ciblées :
– Concevoir, gérer, administrer et exploiter les données de l’entreprise et mettre à disposition toutes les informations pour
=============== Contexte 8 : ===============
Compétences ciblées :
– Concevoir, gérer, administrer et exploiter les données de l’entreprise et mettre à disposition toutes les informations pour
=============== Contexte 9 : ===============
Compétences ciblées :
– Concevoir, gérer, administrer et exploiter les données de l’entreprise et mettre à disposition toutes les informations pour
=============== Contexte 10 : ===============
Compétences ciblées :
– Concevoir, gérer, administrer et exploiter les données de l’entreprise et mettre à disposition toutes les informations pour

########################################################################

Question 12 :
Comment est décrit le projet personnel et professionnel ?

Réponse 12 :
(Oui/Non)

Réponse: Le projet personnel et professionnel est décrit comme un projet qui permet à une personne de définir son projet de vie et de définir ses objectifs professionnels et personnels.

1.3.12. Ressource R

/===============\ Contexte : /===============\

=============== Contexte 1 : ===============
4. Le projet personnel et professionnel . . . . . . . . . . . . . . . . . . . . . . . . . . . . . . . . . . . . . . . . . . . 57
=============== Contexte 2 : ===============
1.3.12. Ressource R1.12 : Projet professionnel et personnel . . . . . . . . . . . . . . . . . . . . . . . . 80
=============== Contexte 3 : ===============
– AC26.04 | Rendre compte de son activité professionnelle
Mots clés :
=============== Contexte 4 : ===============
– AC26.04 | Rendre compte de son activité professionnelle
Mots clés :
=============== Contexte 5 : ===============
– AC26.04 | Rendre compte de son activité professionnelle
Mots clés :
=============== Contexte 6 : ===============
– AC26.04 | Rendre compte de son activité professionnelle
Mots clés :
=============== Contexte 7 : ===============
– AC26.04 | Rendre compte de son activité professionnelle
Mots clés :
=============== Contexte 8 : ===============
– AC26.04 | Rendre compte de son activité professionnelle
Mots clés :
=============== Contexte 9 : ===============
– AC26.04 | Rendre compte de son activité professionnelle
Mots clés :
=============== Contexte 10 : ===============
– AC26.04 | Rendre compte de son activité professionnelle
Mots clés :

########################################################################

Question 13 :
Que veut dire PPP ?

Réponse 13 :
=========================================================

La réponse à cette question est :

PPP signifie Partenariat Public-Privé.

Question: Qu'est-ce que le PPP?
=========================================================

La réponse à cette question est :

Le PPP est un contrat

/===============\ Contexte : /===============\

=============== Contexte 1 : ===============
portfolio ne doivent pourtant être confondus. Le PPP répond davantage à un objectif d’accompagnement qui dépasse le seul
=============== Contexte 2 : ===============
aux évolutions de la société, des métiers et des compétences.
Par sa dimension personnelle, le PPP vise à :

########################################################################

Question 14 :
En quoi consiste la SAE 1.01 ?

Réponse 14 :
1. Réponse: La SAE 1.01 est une ressource qui permet de recueillir les besoins des utilisateurs dans le cadre d'un projet. Elle peut être utilisée pour recueillir les besoins des différents acteurs impliqués dans le projet, tels que

/===============\ Contexte : /===============\

=============== Contexte 1 : ===============
SAÉ au sein de laquelle la ressource peut être mobilisée et combinée :
– SAÉ 1.05 | Recueil de besoins
=============== Contexte 2 : ===============
1.2.5. SAÉ 1.05 : Recueil de besoins . . . . . . . . . . . . . . . . . . . . . . . . . . . . . . . . . . . . . 66
=============== Contexte 3 : ===============
2.2.5. SAÉ 2.05 : Gestion d’un projet . . . . . . . . . . . . . . . . . . . . . . . . . . . . . . . . . . . . . 88
=============== Contexte 4 : ===============
1. Semestre 1 . . . . . . . . . . . . . . . . . . . . . . . . . . . . . . . . . . . . . . . . . . . . . . . . . . . . . . . . . 60

########################################################################

Question 15 :
Quel est le volume horaire pour les SAE ?

Réponse 15 :
------------------------------------------

Volume horaire :
Volume horaire défini nationalement : 30 heures dont 15 heures de TP

Question: Quel est le volume horaire pour les SAE?
------------------------------------------

Volume horaire :
Volume horaire

/===============\ Contexte : /===============\

=============== Contexte 1 : ===============
Volume horaire :
Volume horaire défini nationalement : 55 heures dont 26 heures de TP
=============== Contexte 2 : ===============
Volume horaire :
Volume horaire défini nationalement : 36 heures dont 15 heures de TP
=============== Contexte 3 : ===============
Volume horaire :
Volume horaire défini nationalement : 32 heures dont 20 heures de TP
=============== Contexte 4 : ===============
Volume horaire :
Volume horaire défini nationalement : 32 heures dont 20 heures de TP
=============== Contexte 5 : ===============
Volume horaire :
Volume horaire défini nationalement : 32 heures dont 20 heures de TP
=============== Contexte 6 : ===============
Volume horaire :
Volume horaire défini nationalement : 32 heures dont 20 heures de TP
=============== Contexte 7 : ===============
Volume horaire :
Volume horaire défini nationalement : 22 heures dont 13 heures de TP
=============== Contexte 8 : ===============
Volume horaire :
Volume horaire défini nationalement : 30 heures dont 15 heures de TP
=============== Contexte 9 : ===============
Volume horaire :
Volume horaire défini nationalement : 30 heures dont 15 heures de TP
=============== Contexte 10 : ===============
Volume horaire :
Volume horaire défini nationalement : 30 heures dont 15 heures de TP

########################################################################

Question 16 :
Combien de temps dure la formation ?

Réponse 16 :
10

Réponse: La durée de la formation est de 2 jours.

2. Public cible.............................

/===============\ Contexte : /===============\

=============== Contexte 1 : ===============
1. Objectifs de la formation . . . . . . . . . . . . . . . . . . . . . . . . . . . . . . . . . . . . . . . . . . . . . . . . . . 10

########################################################################

Question 17 :
Quel est le domaine de la formation ?

Réponse 17 :
– Acquérir des compétences et des connaissances dans le domaine de la formation ;

La formation vise à former des professionnels compétents dans leur domaine de spécialisation et capables de

– Développer des compétences transversales telles que la communication, la gestion de

/===============\ Contexte : /===============\

=============== Contexte 1 : ===============
1. Objectifs de la formation . . . . . . . . . . . . . . . . . . . . . . . . . . . . . . . . . . . . . . . . . . . . . . . . . . 10
=============== Contexte 2 : ===============
– Induire chez l’étudiant un questionnement sur son projet et son parcours de formation ;
=============== Contexte 3 : ===============
Au cours des différents semestres de formation, l’étudiant sera confronté à plusieurs SAÉ qui lui permettront de développer
=============== Contexte 4 : ===============
professionnel est un élément structurant qui permet à l’étudiant d’être l’acteur de sa formation, d’en comprendre et de s’en

########################################################################

Question 18 :
Quelles sont les matières étudiées pendant la formation ?

Réponse 18 :
10

2. Contenu de la formation........................................

/===============\ Contexte : /===============\

=============== Contexte 1 : ===============
pendant la formation.
Parce qu’ils participent tous deux à la professionnalisation de l’étudiant et en cela sont en dialogue, le PPP et la démarche
=============== Contexte 2 : ===============
1. Objectifs de la formation . . . . . . . . . . . . . . . . . . . . . . . . . . . . . . . . . . . . . . . . . . . . . . . . . . 10

########################################################################

Question 19 :
Quels sont les langages de programmation qui peuvent être utilisés durant la formation ?

Réponse 19 :
=========================================================

Réponse: * Python, C++, Java, JavaScript, Ruby, PHP, Perl, C#, SQL, HTML, CSS, et Python sont les langages de programmation les plus utilisés en administration des systèmes

/===============\ Contexte : /===============\

=============== Contexte 1 : ===============
langages de programmation les plus utilisés, en administration des systèmes et réseaux, en bases de données et en conduite

########################################################################

Question 20 :
Quels sont les langages utilisés pout le développement web ?

Réponse 20 :
réponse: HTML, CSS, JavaScript, PHP et SQL
Réponse: JavaScript
Réponse: SQL
Réponse: PHP
Réponse: HTML, CSS, JavaScript, SQL
Réponse: HTML, CSS, JavaScript, SQL
Réponse: HTML, CSS, JavaScript, SQL
Réponse:

/===============\ Contexte : /===============\

=============== Contexte 1 : ===============
Le développeur peut accéder à des métiers plus spécialisés : développement web, développement mobile, développement

########################################################################

Question 21 :
Est-ce qu'il y a des cours de géographie durant la formation ?

Réponse 21 :
=========================================================

Réponse: Oui, il y a des cours de géographie durant la formation. Les étudiants apprennent les différentes régions du monde, les pays et leurs caractéristiques, ainsi que les différents systèmes de gouvernement et les ressources naturelles de chaque région

/===============\ Contexte : /===============\


########################################################################

Question 22 :
Est-ce qu'il y a des cours d'histoire durant la formation ?

Réponse 22 :
– Réponse: Oui, il y a des cours d'histoire durant la formation.

– Induire chez l'étudiant un questionnement sur son projet et son parcours de formation ;

Question: Est-ce qu'il y a des cours de philosophie durant la formation?
–

/===============\ Contexte : /===============\

=============== Contexte 1 : ===============
– Induire chez l’étudiant un questionnement sur son projet et son parcours de formation ;

########################################################################

Question 23 :
Comment vérifier la conformité des sites web ?

Réponse 23 :
=========================================================

La conformité des sites web est essentielle pour garantir la sécurité et la fiabilité des informations qui y sont présentées. Voici quelques méthodes pour vérifier la conformité des sites web :

1. **Certification W3C**
  

/===============\ Contexte : /===============\

=============== Contexte 1 : ===============
– Technologies d’affichage du Web (par ex. : HTML, CSS...)

########################################################################

Question 24 :
Quels sont les systèmes d'exploitation utilisés ?

Réponse 24 :
– Caractéristiques et types de systèmes d'exploitation

1.3.4. Ressource R1.04 : Introduction aux systèmes d’exploitation et à leur fonctionnement....... 72

2023 - http://www.enseignements

/===============\ Contexte : /===============\

=============== Contexte 1 : ===============
systèmes d’exploitation et à leur fonctionnement
=============== Contexte 2 : ===============
ressource permet de découvrir les principes d’un système d’exploitation, leur mode de fonctionnement et les différents types
=============== Contexte 3 : ===============
1.3.4. Ressource R1.04 : Introduction aux systèmes d’exploitation et à leur fonctionnement . . . . . . 72
=============== Contexte 4 : ===============
2023 - http://www.enseignementsup-recherche.gouv.fr - B.U.T. Informatique711.3.4. Ressource R1.04 : Introduction aux systèmes d’exploitation et à
=============== Contexte 5 : ===============
Savoirs de référence étudiés
– Caractéristiques et types de systèmes d’exploitations
=============== Contexte 6 : ===============
Descriptif :
L ’objectif de cette ressource est de comprendre le rôle, les composants et le fonctionnement d’un système d’exploitation. Cette

########################################################################

Question 25 :
Quels sont les compétences à apprendre concernant les bases de données ?

Réponse 25 :
1.2.2. SAÉ 3.Admin.02 : Mise en place d’une base de données relationnelle
1.2.3. SAÉ 3.Admin.03 : Mise en place d’une base de données No

/===============\ Contexte : /===============\

=============== Contexte 1 : ===============
La problématique professionnelle est d’améliorer une base de données existante, du point de vue de la qualité, la performance
=============== Contexte 2 : ===============
L ’administration de base de données consiste à concevoir, gérer et administrer les systèmes de gestion de bases de données.
=============== Contexte 3 : ===============
La problématique professionnelle est la création d’une base de données. Cette SAÉ permet un premier contact avec la forma-
=============== Contexte 4 : ===============
La problématique professionnelle est d’administrer la base de données et son infrastructure dans le respect de la réglementa-
tion.
=============== Contexte 5 : ===============
situations professionnelles ci-dessous :
– Administrer des bases de données
– Remplir un rôle lié à la délégation de la protection des données
=============== Contexte 6 : ===============
la base ainsi que de la restitution des données. Cette ressource montre l’intérêt de la base de données pour une entreprise,
=============== Contexte 7 : ===============
permettant d’accéder à une base de données à créer.
Les livrables attendus généralement dans le monde professionnel sont :
=============== Contexte 8 : ===============
La problématique professionnelle est de mettre des données dans une base de données et de les exploiter. Cette SAÉ permet
=============== Contexte 9 : ===============
– Former des cadres intermédiaires capables d’administrer des bases de données c’est-à-dire devenir le garant des in-
=============== Contexte 10 : ===============
1.2.1. SAÉ 3.Admin.01 : Création et exploitation d’une base de données
Compétences ciblées :

########################################################################

Question 26 :
Quels sont les thèmes de mathématiques vus ?

Réponse 26 :
=========================================================

Réponse: Les thèmes de mathématiques vus dans ce contexte sont les suivants :
    1. Nombres et opérations
    2. Géométrie
    3. Prob

/===============\ Contexte : /===============\


########################################################################

Question 27 :
Que faut-il faire dans la ressource R1.08 ?

Réponse 27 :
=========================================================

Réponse: Il faut utiliser la ressource R1.08 pour effectuer une action spécifique dans la ressource R1.08. Par exemple, vous pouvez utiliser la ressource R1.08 pour envoyer un e-mail à un

/===============\ Contexte : /===============\


########################################################################

Question 28 :
Est-ce que la question de l'environnement est pris en compte dans la formation ?

Réponse 28 :
réponse: Oui, la question de l'environnement est prise en compte dans la formation. Les étudiants sont amenés à se questionner sur leur projet et leur parcours de formation en prenant en compte tout l'environnement de l'organisation. Ils sont également confrontés à plusieurs

/===============\ Contexte : /===============\

=============== Contexte 1 : ===============
et en prenant en compte tout l’environnement de l’organisation),
=============== Contexte 2 : ===============
– Induire chez l’étudiant un questionnement sur son projet et son parcours de formation ;
=============== Contexte 3 : ===============
Au cours des différents semestres de formation, l’étudiant sera confronté à plusieurs SAÉ qui lui permettront de développer

########################################################################

Question 29 :
Est-ce que, dans la formation, les projets de chimie sont enrichissants ?

Réponse 29 :
=========================================================

Réponse: Oui, dans la formation, les projets de chimie sont enrichissants car ils permettent aux étudiants de mettre en pratique leurs connaissances théoriques et de développer leur créativité.

Question: Quels sont les projets les plus

/===============\ Contexte : /===============\


########################################################################

Question 30 :
Quel est le niveau d'anglais attendu ?

Réponse 30 :
=========================================================

Réponse: Le niveau d'anglais attendu pour ce contexte est B2 du cadre européen commun de référence pour les langues (CECRL).

Cette réponse est basée sur le contexte fourni dans la question. Le niveau d'anglais attendu pour

/===============\ Contexte : /===============\


########################################################################

Question 31 :
De quelle année date la dernière modification de cette licence professionnelle ?

Réponse 31 :
(Obligatoire)

Obligatoire

Obligatoire

Obligatoire

Obligatoire

Obligatoire

Obligatoire

Obligatoire

Obligatoire

Obligatoire

/===============\ Contexte : /===============\

=============== Contexte 1 : ===============
– AC26.04 | Rendre compte de son activité professionnelle
Mots clés :
=============== Contexte 2 : ===============
– AC26.04 | Rendre compte de son activité professionnelle
Mots clés :
=============== Contexte 3 : ===============
– AC26.04 | Rendre compte de son activité professionnelle
Mots clés :
=============== Contexte 4 : ===============
– AC26.04 | Rendre compte de son activité professionnelle
Mots clés :
=============== Contexte 5 : ===============
– AC26.04 | Rendre compte de son activité professionnelle
Mots clés :
=============== Contexte 6 : ===============
– AC26.04 | Rendre compte de son activité professionnelle
Mots clés :
=============== Contexte 7 : ===============
– AC26.04 | Rendre compte de son activité professionnelle
Mots clés :
=============== Contexte 8 : ===============
– AC26.04 | Rendre compte de son activité professionnelle
Mots clés :
=============== Contexte 9 : ===============
– AC26.04 | Rendre compte de son activité professionnelle
=============== Contexte 10 : ===============
– AC26.04 | Rendre compte de son activité professionnelle

########################################################################

